VSDBabySoC/output/pre_synth_sim/pre_synth_sim.vcd
$date
	Fri Oct  3 07:25:19 2025
$end
$version
	Icarus Verilog
$end
$timescale
	1ps
$end
$scope module vsdbabysoc_tb $end
$var reg 1 ! ENb_CP $end
$var reg 1 " ENb_VCO $end
$var reg 1 # REF $end
$var reg 1 $ VCO_IN $end
$var reg 1 % reset $end
$var real 1 & VREFH $end
$var real 1 ' VREFL $end
$var real 1 ( OUT $end
$scope module uut $end
$var wire 1 ! ENb_CP $end
$var wire 1 " ENb_VCO $end
$var wire 1 # REF $end
$var wire 1 $ VCO_IN $end
$var wire 1 ) VREFH $end
$var wire 1 % reset $end
$var wire 10 * RV_TO_DAC [9:0] $end
$var wire 1 + OUT $end
$var wire 1 , CLK $end
$scope module core $end
$var wire 1 % reset $end
$var wire 1 , CLK $end
$var reg 10 - OUT [9:0] $end
$var reg 10 . counter [9:0] $end
$upscope $end
$scope module dac $end
$var wire 10 / D [9:0] $end
$var wire 1 0 EN $end
$var wire 11 1 Dext [10:0] $end
$var real 1 2 NaN $end
$var real 1 3 OUT $end
$var real 1 4 VREFH $end
$var real 1 5 VREFL $end
$upscope $end
$scope module pll $end
$var wire 1 ! ENb_CP $end
$var wire 1 " ENb_VCO $end
$var wire 1 # REF $end
$var wire 1 $ VCO_IN $end
$var reg 1 , CLK $end
$var real 1 6 lastedge $end
$var real 1 7 period $end
$var real 1 8 refpd $end
$upscope $end
$upscope $end
$upscope $end
$enddefinitions $end
$comment Show the parameter values. $end
$dumpall
$end
#0
$dumpvars
r0 8
r25 7
r0 6
r0 5
r1 4
r0 3
rnan 2
b0xxxxxxxxxx 1
10
bx /
bx .
bx -
0,
0+
bx *
1)
r0 (
r0 '
r3.3 &
0%
0$
0#
1"
x!
$end
#12500
1,
#20000
b0 1
b0 *
b0 -
b0 /
b0 .
1%
#25000
0,
#37500
1,
#50000
0,
#62500
1,
#75000
0,
#87500
1,
#100000
0,
r100 6
1#
#112500
1,
#120000
0%
#125000
0,
#137500
r0.0009775171065493646 3
b1 1
b1 *
b1 -
b1 /
b1 .
1,
#141665
1$
#150000
0,
#162500
r0.001955034213098729 3
b10 1
b10 *
b10 -
b10 /
b10 .
1,
#175000
0,
#187500
r0.002932551319648094 3
b11 1
b11 *
b11 -
b11 /
b11 .
1,
#200000
0,
#212500
r0.003910068426197458 3
b100 1
b100 *
b100 -
b100 /
b100 .
1,
#225000
0,
#237500
r0.004887585532746823 3
b101 1
b101 *
b101 -
b101 /
b101 .
1,
#241665
0#
#250000
0,
#262500
r0.005865102639296188 3
b110 1
b110 *
b110 -
b110 /
b110 .
1,
#275000
0,
#283330
0$
#287500
r0.006842619745845552 3
b111 1
b111 *
b111 -
b111 /
b111 .
1,
#300000
0,
#312500
r0.007820136852394917 3
b1000 1
b1000 *
b1000 -
b1000 /
b1000 .
1,
#325000
0,
#337500
r0.008797653958944282 3
b1001 1
b1001 *
b1001 -
b1001 /
b1001 .
1,
#350000
0,
#362500
r0.009775171065493646 3
b1010 1
b1010 *
b1010 -
b1010 /
b1010 .
1,
#375000
0,
#383330
r383.33 6
r35.41625 7
r283.33 8
1#
#387500
r0.01075268817204301 3
b1011 1
b1011 *
b1011 -
b1011 /
b1011 .
1,
#405208
0,
#422916
r0.01173020527859238 3
b1100 1
b1100 *
b1100 -
b1100 /
b1100 .
1,
#424995
1$
#440624
0,
#458332
r0.01270772238514174 3
b1101 1
b1101 *
b1101 -
b1101 /
b1101 .
1,
#476040
0,
#493748
r0.0136852394916911 3
b1110 1
b1110 *
b1110 -
b1110 /
b1110 .
1,
#511456
0,
#524995
0#
#529164
r0.01466275659824047 3
b1111 1
b1111 *
b1111 -
b1111 /
b1111 .
1,
#546872
0,
#564580
r0.01564027370478983 3
b10000 1
b10000 *
b10000 -
b10000 /
b10000 .
1,
#566660
0$
#582288
0,
#599996
r0.0166177908113392 3
b10001 1
b10001 *
b10001 -
b10001 /
b10001 .
1,
#617704
0,
#635412
r0.01759530791788856 3
b10010 1
b10010 *
b10010 -
b10010 /
b10010 .
1,
#653120
0,
#666660
r666.66 6
1#
#670828
r0.01857282502443793 3
b10011 1
b10011 *
b10011 -
b10011 /
b10011 .
1,
#688536
0,
#706244
r0.01955034213098729 3
b10100 1
b10100 *
b10100 -
b10100 /
b10100 .
1,
#708325
1$
#723952
0,
#741660
r0.02052785923753666 3
b10101 1
b10101 *
b10101 -
b10101 /
b10101 .
1,
#759368
0,
#777076
r0.02150537634408602 3
b10110 1
b10110 *
b10110 -
b10110 /
b10110 .
1,
#794784
0,
#808325
0#
#812492
r0.02248289345063539 3
b10111 1
b10111 *
b10111 -
b10111 /
b10111 .
1,
#830200
0,
#847908
r0.02346041055718475 3
b11000 1
b11000 *
b11000 -
b11000 /
b11000 .
1,
#849990
0$
#865616
0,
#883324
r0.02443792766373411 3
b11001 1
b11001 *
b11001 -
b11001 /
b11001 .
1,
#901032
0,
#918740
r0.02541544477028348 3
b11010 1
b11010 *
b11010 -
b11010 /
b11010 .
1,
#936448
0,
#949990
r949.99 6
r35.41625000000001 7
r283.33 8
1#
#954156
r0.02639296187683285 3
b11011 1
b11011 *
b11011 -
b11011 /
b11011 .
1,
#971864
0,
#989572
r0.02737047898338221 3
b11100 1
b11100 *
b11100 -
b11100 /
b11100 .
1,
#991655
1$
#1007280
0,
#1024988
r0.02834799608993157 3
b11101 1
b11101 *
b11101 -
b11101 /
b11101 .
1,
#1042696
0,
#1060404
r0.02932551319648094 3
b11110 1
b11110 *
b11110 -
b11110 /
b11110 .
1,
#1078112
0,
#1091655
0#
#1095820
r0.0303030303030303 3
b11111 1
b11111 *
b11111 -
b11111 /
b11111 .
1,
#1113528
0,
#1131236
r0.03128054740957967 3
b100000 1
b100000 *
b100000 -
b100000 /
b100000 .
1,
#1133320
0$
#1148944
0,
#1166652
r0.03225806451612903 3
b100001 1
b100001 *
b100001 -
b100001 /
b100001 .
1,
#1184360
0,
#1202068
r0.0332355816226784 3
b100010 1
b100010 *
b100010 -
b100010 /
b100010 .
1,
#1219776
0,
#1233320
r1233.32 6
r35.41624999999999 7
r283.3299999999999 8
1#
#1237484
r0.03421309872922776 3
b100011 1
b100011 *
b100011 -
b100011 /
b100011 .
1,
#1255192
0,
#1272900
r0.03519061583577713 3
b100100 1
b100100 *
b100100 -
b100100 /
b100100 .
1,
#1274985
1$
#1290608
0,
#1308316
r0.03616813294232649 3
b100101 1
b100101 *
b100101 -
b100101 /
b100101 .
1,
#1326024
0,
#1343732
r0.03714565004887586 3
b100110 1
b100110 *
b100110 -
b100110 /
b100110 .
1,
#1361440
0,
#1374985
0#
#1379148
r0.03812316715542522 3
b100111 1
b100111 *
b100111 -
b100111 /
b100111 .
1,
#1396856
0,
#1414564
r0.03910068426197458 3
b101000 1
b101000 *
b101000 -
b101000 /
b101000 .
1,
#1416650
0$
#1432272
0,
#1449980
r0.04007820136852395 3
b101001 1
b101001 *
b101001 -
b101001 /
b101001 .
1,
#1467688
0,
#1485396
r0.04105571847507331 3
b101010 1
b101010 *
b101010 -
b101010 /
b101010 .
1,
#1503104
0,
#1516650
r1516.65 6
r35.41625000000002 7
r283.3300000000002 8
1#
#1520812
r0.04203323558162268 3
b101011 1
b101011 *
b101011 -
b101011 /
b101011 .
1,
#1538520
0,
#1556228
r0.04301075268817205 3
b101100 1
b101100 *
b101100 -
b101100 /
b101100 .
1,
#1558315
1$
#1573936
0,
#1591644
r0.04398826979472141 3
b101101 1
b101101 *
b101101 -
b101101 /
b101101 .
1,
#1609352
0,
#1627060
r0.04496578690127077 3
b101110 1
b101110 *
b101110 -
b101110 /
b101110 .
1,
#1644768
0,
#1658315
0#
#1662476
r0.04594330400782014 3
b101111 1
b101111 *
b101111 -
b101111 /
b101111 .
1,
#1680184
0,
#1697892
r0.0469208211143695 3
b110000 1
b110000 *
b110000 -
b110000 /
b110000 .
1,
#1699980
0$
#1715600
0,
#1733308
r0.04789833822091887 3
b110001 1
b110001 *
b110001 -
b110001 /
b110001 .
1,
#1751016
0,
#1768724
r0.04887585532746823 3
b110010 1
b110010 *
b110010 -
b110010 /
b110010 .
1,
#1786432
0,
#1799980
r1799.98 6
r35.41624999999999 7
r283.3299999999999 8
1#
#1804140
r0.04985337243401759 3
b110011 1
b110011 *
b110011 -
b110011 /
b110011 .
1,
#1821848
0,
#1839556
r0.05083088954056696 3
b110100 1
b110100 *
b110100 -
b110100 /
b110100 .
1,
#1841645
1$
#1857264
0,
#1874972
r0.05180840664711633 3
b110101 1
b110101 *
b110101 -
b110101 /
b110101 .
1,
#1892680
0,
#1910388
r0.05278592375366569 3
b110110 1
b110110 *
b110110 -
b110110 /
b110110 .
1,
#1928096
0,
#1941645
0#
#1945804
r0.05376344086021505 3
b110111 1
b110111 *
b110111 -
b110111 /
b110111 .
1,
#1963512
0,
#1981220
r0.05474095796676442 3
b111000 1
b111000 *
b111000 -
b111000 /
b111000 .
1,
#1983310
0$
#1998928
0,
#2016636
r0.05571847507331378 3
b111001 1
b111001 *
b111001 -
b111001 /
b111001 .
1,
#2034344
0,
#2052052
r0.05669599217986315 3
b111010 1
b111010 *
b111010 -
b111010 /
b111010 .
1,
#2069760
0,
#2083310
r2083.31 6
1#
#2087468
r0.05767350928641251 3
b111011 1
b111011 *
b111011 -
b111011 /
b111011 .
1,
#2105176
0,
#2122884
r0.05865102639296188 3
b111100 1
b111100 *
b111100 -
b111100 /
b111100 .
1,
#2124975
1$
#2140592
0,
#2158300
r0.05962854349951124 3
b111101 1
b111101 *
b111101 -
b111101 /
b111101 .
1,
#2176008
0,
#2193716
r0.06060606060606061 3
b111110 1
b111110 *
b111110 -
b111110 /
b111110 .
1,
#2211424
0,
#2224975
0#
#2229132
r0.06158357771260997 3
b111111 1
b111111 *
b111111 -
b111111 /
b111111 .
1,
#2246840
0,
#2264548
r0.06256109481915934 3
b1000000 1
b1000000 *
b1000000 -
b1000000 /
b1000000 .
1,
#2266640
0$
#2282256
0,
#2299964
r0.0635386119257087 3
b1000001 1
b1000001 *
b1000001 -
b1000001 /
b1000001 .
1,
#2317672
0,
#2335380
r0.06451612903225806 3
b1000010 1
b1000010 *
b1000010 -
b1000010 /
b1000010 .
1,
#2353088
0,
#2366640
r2366.64 6
1#
#2370796
r0.06549364613880743 3
b1000011 1
b1000011 *
b1000011 -
b1000011 /
b1000011 .
1,
#2388504
0,
#2406212
r0.06647116324535679 3
b1000100 1
b1000100 *
b1000100 -
b1000100 /
b1000100 .
1,
#2408305
1$
#2423920
0,
#2441628
r0.06744868035190615 3
b1000101 1
b1000101 *
b1000101 -
b1000101 /
b1000101 .
1,
#2459336
0,
#2477044
r0.06842619745845552 3
b1000110 1
b1000110 *
b1000110 -
b1000110 /
b1000110 .
1,
#2494752
0,
#2508305
0#
#2512460
r0.06940371456500488 3
b1000111 1
b1000111 *
b1000111 -
b1000111 /
b1000111 .
1,
#2530168
0,
#2547876
r0.07038123167155426 3
b1001000 1
b1001000 *
b1001000 -
b1001000 /
b1001000 .
1,
#2549970
0$
#2565584
0,
#2583292
r0.07135874877810362 3
b1001001 1
b1001001 *
b1001001 -
b1001001 /
b1001001 .
1,
#2601000
0,
#2618708
r0.07233626588465299 3
b1001010 1
b1001010 *
b1001010 -
b1001010 /
b1001010 .
1,
#2636416
0,
#2649970
r2649.97 6
1#
#2654124
r0.07331378299120235 3
b1001011 1
b1001011 *
b1001011 -
b1001011 /
b1001011 .
1,
#2671832
0,
#2689540
r0.07429130009775171 3
b1001100 1
b1001100 *
b1001100 -
b1001100 /
b1001100 .
1,
#2691635
1$
#2707248
0,
#2724956
r0.07526881720430108 3
b1001101 1
b1001101 *
b1001101 -
b1001101 /
b1001101 .
1,
#2742664
0,
#2760372
r0.07624633431085044 3
b1001110 1
b1001110 *
b1001110 -
b1001110 /
b1001110 .
1,
#2778080
0,
#2791635
0#
#2795788
r0.07722385141739981 3
b1001111 1
b1001111 *
b1001111 -
b1001111 /
b1001111 .
1,
#2813496
0,
#2831204
r0.07820136852394917 3
b1010000 1
b1010000 *
b1010000 -
b1010000 /
b1010000 .
1,
#2833300
0$
#2848912
0,
#2866620
r0.07917888563049853 3
b1010001 1
b1010001 *
b1010001 -
b1010001 /
b1010001 .
1,
#2884328
0,
#2902036
r0.0801564027370479 3
b1010010 1
b1010010 *
b1010010 -
b1010010 /
b1010010 .
1,
#2919744
0,
#2933300
r2933.3 6
r35.41625000000005 7
r283.3300000000004 8
1#
#2937452
r0.08113391984359726 3
b1010011 1
b1010011 *
b1010011 -
b1010011 /
b1010011 .
1,
#2955160
0,
#2972868
r0.08211143695014662 3
b1010100 1
b1010100 *
b1010100 -
b1010100 /
b1010100 .
1,
#2974965
1$
#2990576
0,
#3008284
r0.08308895405669599 3
b1010101 1
b1010101 *
b1010101 -
b1010101 /
b1010101 .
1,
#3025992
0,
#3043700
r0.08406647116324535 3
b1010110 1
b1010110 *
b1010110 -
b1010110 /
b1010110 .
1,
#3061408
0,
#3074965
0#
#3079116
r0.08504398826979472 3
b1010111 1
b1010111 *
b1010111 -
b1010111 /
b1010111 .
1,
#3096824
0,
#3114532
r0.08602150537634409 3
b1011000 1
b1011000 *
b1011000 -
b1011000 /
b1011000 .
1,
#3116630
0$
#3132240
0,
#3149948
r0.08699902248289346 3
b1011001 1
b1011001 *
b1011001 -
b1011001 /
b1011001 .
1,
#3167656
0,
#3185364
r0.08797653958944282 3
b1011010 1
b1011010 *
b1011010 -
b1011010 /
b1011010 .
1,
#3203072
0,
#3216630
r3216.63 6
r35.41624999999999 7
r283.3299999999999 8
1#
#3220780
r0.08895405669599218 3
b1011011 1
b1011011 *
b1011011 -
b1011011 /
b1011011 .
1,
#3238488
0,
#3256196
r0.08993157380254155 3
b1011100 1
b1011100 *
b1011100 -
b1011100 /
b1011100 .
1,
#3258295
1$
#3273904
0,
#3291612
r0.09090909090909091 3
b1011101 1
b1011101 *
b1011101 -
b1011101 /
b1011101 .
1,
#3309320
0,
#3327028
r0.09188660801564028 3
b1011110 1
b1011110 *
b1011110 -
b1011110 /
b1011110 .
1,
#3344736
0,
#3358295
0#
#3362444
r0.09286412512218964 3
b1011111 1
b1011111 *
b1011111 -
b1011111 /
b1011111 .
1,
#3380152
0,
#3397860
r0.093841642228739 3
b1100000 1
b1100000 *
b1100000 -
b1100000 /
b1100000 .
1,
#3399960
0$
#3415568
0,
#3433276
r0.09481915933528837 3
b1100001 1
b1100001 *
b1100001 -
b1100001 /
b1100001 .
1,
#3450984
0,
#3468692
r0.09579667644183773 3
b1100010 1
b1100010 *
b1100010 -
b1100010 /
b1100010 .
1,
#3486400
0,
#3499960
r3499.96 6
1#
#3504108
r0.09677419354838709 3
b1100011 1
b1100011 *
b1100011 -
b1100011 /
b1100011 .
1,
#3521816
0,
#3539524
r0.09775171065493646 3
b1100100 1
b1100100 *
b1100100 -
b1100100 /
b1100100 .
1,
#3541625
1$
#3557232
0,
#3574940
r0.09872922776148582 3
b1100101 1
b1100101 *
b1100101 -
b1100101 /
b1100101 .
1,
#3592648
0,
#3610356
r0.09970674486803519 3
b1100110 1
b1100110 *
b1100110 -
b1100110 /
b1100110 .
1,
#3628064
0,
#3641625
0#
#3645772
r0.1006842619745845 3
b1100111 1
b1100111 *
b1100111 -
b1100111 /
b1100111 .
1,
#3663480
0,
#3681188
r0.1016617790811339 3
b1101000 1
b1101000 *
b1101000 -
b1101000 /
b1101000 .
1,
#3683290
0$
#3698896
0,
#3716604
r0.1026392961876833 3
b1101001 1
b1101001 *
b1101001 -
b1101001 /
b1101001 .
1,
#3734312
0,
#3752020
r0.1036168132942327 3
b1101010 1
b1101010 *
b1101010 -
b1101010 /
b1101010 .
1,
#3769728
0,
#3783290
r3783.29 6
1#
#3787436
r0.104594330400782 3
b1101011 1
b1101011 *
b1101011 -
b1101011 /
b1101011 .
1,
#3805144
0,
#3822852
r0.1055718475073314 3
b1101100 1
b1101100 *
b1101100 -
b1101100 /
b1101100 .
1,
#3824955
1$
#3840560
0,
#3858268
r0.1065493646138807 3
b1101101 1
b1101101 *
b1101101 -
b1101101 /
b1101101 .
1,
#3875976
0,
#3893684
r0.1075268817204301 3
b1101110 1
b1101110 *
b1101110 -
b1101110 /
b1101110 .
1,
#3911392
0,
#3924955
0#
#3929100
r0.1085043988269795 3
b1101111 1
b1101111 *
b1101111 -
b1101111 /
b1101111 .
1,
#3946808
0,
#3964516
r0.1094819159335288 3
b1110000 1
b1110000 *
b1110000 -
b1110000 /
b1110000 .
1,
#3966620
0$
#3982224
0,
#3999932
r0.1104594330400782 3
b1110001 1
b1110001 *
b1110001 -
b1110001 /
b1110001 .
1,
#4017640
0,
#4035348
r0.1114369501466276 3
b1110010 1
b1110010 *
b1110010 -
b1110010 /
b1110010 .
1,
#4053056
0,
#4066620
r4066.62 6
1#
#4070764
r0.1124144672531769 3
b1110011 1
b1110011 *
b1110011 -
b1110011 /
b1110011 .
1,
#4088472
0,
#4106180
r0.1133919843597263 3
b1110100 1
b1110100 *
b1110100 -
b1110100 /
b1110100 .
1,
#4108285
1$
#4123888
0,
#4141596
r0.1143695014662757 3
b1110101 1
b1110101 *
b1110101 -
b1110101 /
b1110101 .
1,
#4159304
0,
#4177012
r0.115347018572825 3
b1110110 1
b1110110 *
b1110110 -
b1110110 /
b1110110 .
1,
#4194720
0,
#4208285
0#
#4212428
r0.1163245356793744 3
b1110111 1
b1110111 *
b1110111 -
b1110111 /
b1110111 .
1,
#4230136
0,
#4247844
r0.1173020527859238 3
b1111000 1
b1111000 *
b1111000 -
b1111000 /
b1111000 .
1,
#4249950
0$
#4265552
0,
#4283260
r0.1182795698924731 3
b1111001 1
b1111001 *
b1111001 -
b1111001 /
b1111001 .
1,
#4300968
0,
#4318676
r0.1192570869990225 3
b1111010 1
b1111010 *
b1111010 -
b1111010 /
b1111010 .
1,
#4336384
0,
#4349950
r4349.95 6
1#
#4354092
r0.1202346041055719 3
b1111011 1
b1111011 *
b1111011 -
b1111011 /
b1111011 .
1,
#4371800
0,
#4389508
r0.1212121212121212 3
b1111100 1
b1111100 *
b1111100 -
b1111100 /
b1111100 .
1,
#4391615
1$
#4407216
0,
#4424924
r0.1221896383186706 3
b1111101 1
b1111101 *
b1111101 -
b1111101 /
b1111101 .
1,
#4442632
0,
#4460340
r0.1231671554252199 3
b1111110 1
b1111110 *
b1111110 -
b1111110 /
b1111110 .
1,
#4478048
0,
#4491615
0#
#4495756
r0.1241446725317693 3
b1111111 1
b1111111 *
b1111111 -
b1111111 /
b1111111 .
1,
#4513464
0,
#4531172
r0.1251221896383187 3
b10000000 1
b10000000 *
b10000000 -
b10000000 /
b10000000 .
1,
#4533280
0$
#4548880
0,
#4566588
r0.126099706744868 3
b10000001 1
b10000001 *
b10000001 -
b10000001 /
b10000001 .
1,
#4584296
0,
#4602004
r0.1270772238514174 3
b10000010 1
b10000010 *
b10000010 -
b10000010 /
b10000010 .
1,
#4619712
0,
#4633280
r4633.28 6
1#
#4637420
r0.1280547409579668 3
b10000011 1
b10000011 *
b10000011 -
b10000011 /
b10000011 .
1,
#4655128
0,
#4672836
r0.1290322580645161 3
b10000100 1
b10000100 *
b10000100 -
b10000100 /
b10000100 .
1,
#4674945
1$
#4690544
0,
#4708252
r0.1300097751710655 3
b10000101 1
b10000101 *
b10000101 -
b10000101 /
b10000101 .
1,
#4725960
0,
#4743668
r0.1309872922776149 3
b10000110 1
b10000110 *
b10000110 -
b10000110 /
b10000110 .
1,
#4761376
0,
#4774945
0#
#4779084
r0.1319648093841642 3
b10000111 1
b10000111 *
b10000111 -
b10000111 /
b10000111 .
1,
#4796792
0,
#4814500
r0.1329423264907136 3
b10001000 1
b10001000 *
b10001000 -
b10001000 /
b10001000 .
1,
#4816610
0$
#4832208
0,
#4849916
r0.1339198435972629 3
b10001001 1
b10001001 *
b10001001 -
b10001001 /
b10001001 .
1,
#4867624
0,
#4885332
r0.1348973607038123 3
b10001010 1
b10001010 *
b10001010 -
b10001010 /
b10001010 .
1,
#4903040
0,
#4916610
r4916.61 6
1#
#4920748
r0.1358748778103617 3
b10001011 1
b10001011 *
b10001011 -
b10001011 /
b10001011 .
1,
#4938456
0,
#4956164
r0.136852394916911 3
b10001100 1
b10001100 *
b10001100 -
b10001100 /
b10001100 .
1,
#4958275
1$
#4973872
0,
#4991580
r0.1378299120234604 3
b10001101 1
b10001101 *
b10001101 -
b10001101 /
b10001101 .
1,
#5009288
0,
#5026996
r0.1388074291300098 3
b10001110 1
b10001110 *
b10001110 -
b10001110 /
b10001110 .
1,
#5044704
0,
#5058275
0#
#5062412
r0.1397849462365591 3
b10001111 1
b10001111 *
b10001111 -
b10001111 /
b10001111 .
1,
#5080120
0,
#5097828
r0.1407624633431085 3
b10010000 1
b10010000 *
b10010000 -
b10010000 /
b10010000 .
1,
#5099940
0$
#5115536
0,
#5133244
r0.1417399804496579 3
b10010001 1
b10010001 *
b10010001 -
b10010001 /
b10010001 .
1,
#5150952
0,
#5168660
r0.1427174975562072 3
b10010010 1
b10010010 *
b10010010 -
b10010010 /
b10010010 .
1,
#5186368
0,
#5199940
r5199.94 6
1#
#5204076
r0.1436950146627566 3
b10010011 1
b10010011 *
b10010011 -
b10010011 /
b10010011 .
1,
#5221784
0,
#5239492
r0.144672531769306 3
b10010100 1
b10010100 *
b10010100 -
b10010100 /
b10010100 .
1,
#5241605
1$
#5257200
0,
#5274908
r0.1456500488758553 3
b10010101 1
b10010101 *
b10010101 -
b10010101 /
b10010101 .
1,
#5292616
0,
#5310324
r0.1466275659824047 3
b10010110 1
b10010110 *
b10010110 -
b10010110 /
b10010110 .
1,
#5328032
0,
#5341605
0#
#5345740
r0.1476050830889541 3
b10010111 1
b10010111 *
b10010111 -
b10010111 /
b10010111 .
1,
#5363448
0,
#5381156
r0.1485826001955034 3
b10011000 1
b10011000 *
b10011000 -
b10011000 /
b10011000 .
1,
#5383270
0$
#5398864
0,
#5416572
r0.1495601173020528 3
b10011001 1
b10011001 *
b10011001 -
b10011001 /
b10011001 .
1,
#5434280
0,
#5451988
r0.1505376344086022 3
b10011010 1
b10011010 *
b10011010 -
b10011010 /
b10011010 .
1,
#5469696
0,
#5483270
r5483.27 6
r35.4162500000001 7
r283.3300000000008 8
1#
#5487404
r0.1515151515151515 3
b10011011 1
b10011011 *
b10011011 -
b10011011 /
b10011011 .
1,
#5505112
0,
#5522820
r0.1524926686217009 3
b10011100 1
b10011100 *
b10011100 -
b10011100 /
b10011100 .
1,
#5524935
1$
#5540528
0,
#5558236
r0.1534701857282502 3
b10011101 1
b10011101 *
b10011101 -
b10011101 /
b10011101 .
1,
#5575944
0,
#5593652
r0.1544477028347996 3
b10011110 1
b10011110 *
b10011110 -
b10011110 /
b10011110 .
1,
#5611360
0,
#5624935
0#
#5629068
r0.155425219941349 3
b10011111 1
b10011111 *
b10011111 -
b10011111 /
b10011111 .
1,
#5646776
0,
#5664484
r0.1564027370478983 3
b10100000 1
b10100000 *
b10100000 -
b10100000 /
b10100000 .
1,
#5666600
0$
#5682192
0,
#5699900
r0.1573802541544477 3
b10100001 1
b10100001 *
b10100001 -
b10100001 /
b10100001 .
1,
#5717608
0,
#5735316
r0.1583577712609971 3
b10100010 1
b10100010 *
b10100010 -
b10100010 /
b10100010 .
1,
#5753024
0,
#5766600
r5766.6 6
r35.41624999999999 7
r283.3299999999999 8
1#
#5770732
r0.1593352883675464 3
b10100011 1
b10100011 *
b10100011 -
b10100011 /
b10100011 .
1,
#5788440
0,
#5806148
r0.1603128054740958 3
b10100100 1
b10100100 *
b10100100 -
b10100100 /
b10100100 .
1,
#5808265
1$
#5823856
0,
#5841564
r0.1612903225806452 3
b10100101 1
b10100101 *
b10100101 -
b10100101 /
b10100101 .
1,
#5859272
0,
#5876980
r0.1622678396871945 3
b10100110 1
b10100110 *
b10100110 -
b10100110 /
b10100110 .
1,
#5894688
0,
#5908265
0#
#5912396
r0.1632453567937439 3
b10100111 1
b10100111 *
b10100111 -
b10100111 /
b10100111 .
1,
#5930104
0,
#5947812
r0.1642228739002932 3
b10101000 1
b10101000 *
b10101000 -
b10101000 /
b10101000 .
1,
#5949930
0$
#5965520
0,
#5983228
r0.1652003910068426 3
b10101001 1
b10101001 *
b10101001 -
b10101001 /
b10101001 .
1,
#6000936
0,
#6018644
r0.166177908113392 3
b10101010 1
b10101010 *
b10101010 -
b10101010 /
b10101010 .
1,
#6036352
0,
#6049930
r6049.93 6
1#
#6054060
r0.1671554252199413 3
b10101011 1
b10101011 *
b10101011 -
b10101011 /
b10101011 .
1,
#6071768
0,
#6089476
r0.1681329423264907 3
b10101100 1
b10101100 *
b10101100 -
b10101100 /
b10101100 .
1,
#6091595
1$
#6107184
0,
#6124892
r0.1691104594330401 3
b10101101 1
b10101101 *
b10101101 -
b10101101 /
b10101101 .
1,
#6142600
0,
#6160308
r0.1700879765395894 3
b10101110 1
b10101110 *
b10101110 -
b10101110 /
b10101110 .
1,
#6178016
0,
#6191595
0#
#6195724
r0.1710654936461388 3
b10101111 1
b10101111 *
b10101111 -
b10101111 /
b10101111 .
1,
#6213432
0,
#6231140
r0.1720430107526882 3
b10110000 1
b10110000 *
b10110000 -
b10110000 /
b10110000 .
1,
#6233260
0$
#6248848
0,
#6266556
r0.1730205278592375 3
b10110001 1
b10110001 *
b10110001 -
b10110001 /
b10110001 .
1,
#6284264
0,
#6301972
r0.1739980449657869 3
b10110010 1
b10110010 *
b10110010 -
b10110010 /
b10110010 .
1,
#6319680
0,
#6333260
r6333.26 6
1#
#6337388
r0.1749755620723363 3
b10110011 1
b10110011 *
b10110011 -
b10110011 /
b10110011 .
1,
#6355096
0,
#6372804
r0.1759530791788856 3
b10110100 1
b10110100 *
b10110100 -
b10110100 /
b10110100 .
1,
#6374925
1$
#6390512
0,
#6408220
r0.176930596285435 3
b10110101 1
b10110101 *
b10110101 -
b10110101 /
b10110101 .
1,
#6425928
0,
#6443636
r0.1779081133919844 3
b10110110 1
b10110110 *
b10110110 -
b10110110 /
b10110110 .
1,
#6461344
0,
#6474925
0#
#6479052
r0.1788856304985337 3
b10110111 1
b10110111 *
b10110111 -
b10110111 /
b10110111 .
1,
#6496760
0,
#6514468
r0.1798631476050831 3
b10111000 1
b10111000 *
b10111000 -
b10111000 /
b10111000 .
1,
#6516590
0$
#6532176
0,
#6549884
r0.1808406647116325 3
b10111001 1
b10111001 *
b10111001 -
b10111001 /
b10111001 .
1,
#6567592
0,
#6585300
r0.1818181818181818 3
b10111010 1
b10111010 *
b10111010 -
b10111010 /
b10111010 .
1,
#6603008
0,
#6616590
r6616.59 6
1#
#6620716
r0.1827956989247312 3
b10111011 1
b10111011 *
b10111011 -
b10111011 /
b10111011 .
1,
#6638424
0,
#6656132
r0.1837732160312806 3
b10111100 1
b10111100 *
b10111100 -
b10111100 /
b10111100 .
1,
#6658255
1$
#6673840
0,
#6691548
r0.1847507331378299 3
b10111101 1
b10111101 *
b10111101 -
b10111101 /
b10111101 .
1,
#6709256
0,
#6726964
r0.1857282502443793 3
b10111110 1
b10111110 *
b10111110 -
b10111110 /
b10111110 .
1,
#6744672
0,
#6758255
0#
#6762380
r0.1867057673509286 3
b10111111 1
b10111111 *
b10111111 -
b10111111 /
b10111111 .
1,
#6780088
0,
#6797796
r0.187683284457478 3
b11000000 1
b11000000 *
b11000000 -
b11000000 /
b11000000 .
1,
#6799920
0$
#6815504
0,
#6833212
r0.1886608015640274 3
b11000001 1
b11000001 *
b11000001 -
b11000001 /
b11000001 .
1,
#6850920
0,
#6868628
r0.1896383186705767 3
b11000010 1
b11000010 *
b11000010 -
b11000010 /
b11000010 .
1,
#6886336
0,
#6899920
r6899.92 6
1#
#6904044
r0.1906158357771261 3
b11000011 1
b11000011 *
b11000011 -
b11000011 /
b11000011 .
1,
#6921752
0,
#6939460
r0.1915933528836755 3
b11000100 1
b11000100 *
b11000100 -
b11000100 /
b11000100 .
1,
#6941585
1$
#6957168
0,
#6974876
r0.1925708699902248 3
b11000101 1
b11000101 *
b11000101 -
b11000101 /
b11000101 .
1,
#6992584
0,
#7010292
r0.1935483870967742 3
b11000110 1
b11000110 *
b11000110 -
b11000110 /
b11000110 .
1,
#7028000
0,
#7041585
0#
#7045708
r0.1945259042033236 3
b11000111 1
b11000111 *
b11000111 -
b11000111 /
b11000111 .
1,
#7063416
0,
#7081124
r0.1955034213098729 3
b11001000 1
b11001000 *
b11001000 -
b11001000 /
b11001000 .
1,
#7083250
0$
#7098832
0,
#7116540
r0.1964809384164223 3
b11001001 1
b11001001 *
b11001001 -
b11001001 /
b11001001 .
1,
#7134248
0,
#7151956
r0.1974584555229716 3
b11001010 1
b11001010 *
b11001010 -
b11001010 /
b11001010 .
1,
#7169664
0,
#7183250
r7183.25 6
1#
#7187372
r0.198435972629521 3
b11001011 1
b11001011 *
b11001011 -
b11001011 /
b11001011 .
1,
#7205080
0,
#7222788
r0.1994134897360704 3
b11001100 1
b11001100 *
b11001100 -
b11001100 /
b11001100 .
1,
#7224915
1$
#7240496
0,
#7258204
r0.2003910068426197 3
b11001101 1
b11001101 *
b11001101 -
b11001101 /
b11001101 .
1,
#7275912
0,
#7293620
r0.2013685239491691 3
b11001110 1
b11001110 *
b11001110 -
b11001110 /
b11001110 .
1,
#7311328
0,
#7324915
0#
#7329036
r0.2023460410557185 3
b11001111 1
b11001111 *
b11001111 -
b11001111 /
b11001111 .
1,
#7346744
0,
#7364452
r0.2033235581622679 3
b11010000 1
b11010000 *
b11010000 -
b11010000 /
b11010000 .
1,
#7366580
0$
#7382160
0,
#7399868
r0.2043010752688172 3
b11010001 1
b11010001 *
b11010001 -
b11010001 /
b11010001 .
1,
#7417576
0,
